{
    "game":
    [
        "Speedometer.Shared.lua"
        , "Speedometer.Configuration.lua"
        , "Game.Speedometer.Main.lua"

        , "SpeedRecord.Shared.lua"
        , "SpeedRecord.Configuration.lua"
        , "Game.SpeedRecord.Main.lua"

        
    ],
    "ui":
    [
        "Speedometer.Shared.lua"
        , "Speedometer.Configuration.lua"
        , "UI.Speedometer.Main.lua"

        , "SpeedRecord.Shared.lua"
        , "SpeedRecord.Configuration.lua"
        , "UI.SpeedRecord.Main.lua"

        
    ]
}