{
    "game":
    [
        "Jetpack.Shared.lua"
        , "Jetpack.Configuration.lua"
        , "Game.Jetpack.Main.lua"

        
    ],
    "ui":
    [
        "Jetpack.Shared.lua"
        , "Jetpack.Configuration.lua"
        , "UI.Jetpack.Main.lua"

        
    ]
}